EESchema Schematic File Version 4
LIBS:CoreOne-xCORE200-2.0-cache
EELAYER 29 0
EELAYER END
$Descr A3 16535 11693
encoding utf-8
Sheet 1 8
Title "CoreOne - xCORE200 Platform"
Date "2019-04-02"
Rev "2.0"
Comp "Open Hardware DSP Platform - www.ohdsp.org"
Comment1 "MERCHANTABILITY, SATISFACTORY QUALITY AND FITNESS FOR A PARTICULAR PURPOSE."
Comment2 "is distributed WITHOUT ANY EXPRESS OR IMPLIED WARRANTY, INCLUDING OF"
Comment3 "Licensed under the TAPR Open Hardware License (www.tapr.org/OHL). This documentation"
Comment4 "Copyright Paul Janicki 2019"
$EndDescr
$Sheet
S 12950 1450 1300 1150
U 54DA50D9
F0 "Power Supply" 60
F1 "PSU.sch" 60
$EndSheet
$Sheet
S 6800 3450 1300 1100
U 54E30917
F0 "SPDIF" 60
F1 "SPDIF.sch" 60
F2 "SPDIF_RX" O L 6800 3750 60 
F3 "SPDIF_TX" I L 6800 4250 60 
$EndSheet
$Sheet
S 2050 7650 2300 3200
U 54E8D6A6
F0 "Connectors" 60
F1 "Connectors.sch" 60
F2 "AUX_DIGI5" O L 2050 10350 60 
F3 "AUX_DIGI4" O L 2050 10250 60 
F4 "AUX_DIGI3" O L 2050 10150 60 
F5 "AUX_DIGI2" O L 2050 10050 60 
F6 "AUX_DIGI1" O L 2050 9950 60 
F7 "AUX_DIGI0" O L 2050 9850 60 
F8 "USB_VBUS" O L 2050 9200 60 
F9 "XMOS_TCK" O R 4350 9600 60 
F10 "XMOS_TMS" O R 4350 9700 60 
F11 "XMOS_TDI" O R 4350 9800 60 
F12 "XMOS_TDO" I R 4350 9900 60 
F13 "XMOS_RST_N" O R 4350 9450 60 
F14 "XMOS_XLUP1" B R 4350 10050 60 
F15 "XMOS_XLUP0" B R 4350 10150 60 
F16 "XMOS_XLDN1" B R 4350 10250 60 
F17 "XMOS_XLDN0" B R 4350 10350 60 
F18 "I2S_LRCLK2" B R 4350 8500 60 
F19 "I2S_BCLK2" B R 4350 8600 60 
F20 "I2S_SDATA2" B R 4350 8700 60 
F21 "SPI_MISO" O L 2050 7950 60 
F22 "SPI_SCLK" I L 2050 7750 60 
F23 "SPI_CS1" I L 2050 8050 60 
F24 "SPI_MOSI" I L 2050 7850 60 
F25 "SPI_MUTE" I L 2050 8300 60 
F26 "SPI_RST" I L 2050 8400 60 
F27 "I2S_LRCLK1" B R 4350 7900 60 
F28 "I2S_BCLK1" B R 4350 8000 60 
F29 "I2S_SDATA1" B R 4350 8100 60 
F30 "I2C_SDA1" B L 2050 8550 60 
F31 "I2C_SCL1" B L 2050 8650 60 
F32 "I2C_RST" I L 2050 8900 60 
F33 "I2C_MUTE" I L 2050 9000 60 
F34 "I2S_MCLKA" B R 4350 7800 60 
F35 "USBD_N" O L 2050 9300 60 
F36 "USBD_P" O L 2050 9400 60 
F37 "AUX_DIGI7" O L 2050 10550 60 
F38 "AUX_DIGI6" O L 2050 10450 60 
F39 "I2S_MCLKB" B R 4350 8400 60 
F40 "I2S_SDATA3" B R 4350 8200 60 
F41 "I2S_SDATA4" B R 4350 8800 60 
F42 "SPI_CS2" I L 2050 8150 60 
$EndSheet
Text Label 1350 4200 0    60   ~ 0
SPDIF_TX
Text Label 1350 4300 0    60   ~ 0
SPDIF_RX
Text Label 6200 3750 0    60   ~ 0
SPDIF_RX
Text Label 6200 4250 0    60   ~ 0
SPDIF_TX
Text Label 5050 4850 2    60   ~ 0
SPI_MISO
Text Label 5050 4650 2    60   ~ 0
SPI_SCLK
Text Label 5050 4750 2    60   ~ 0
SPI_MOSI
Text Notes 700  700  0    118  ~ 0
Open Hardware DSP Platform - www.ohdsp.org\n
Text Notes 6450 10700 0    79   ~ 0
All digital I/O is 3V3. Use outside this voltage can cause damage.\n\nSee bill of materials for detailed parts information.\n\nTrace impedance on SPI/I2C, MCLK, and I2S is designed for approx 89ohm.\n26AWG ribbon cable used with Ground-Signal-Ground is approx 89ohm.
Text Notes 6400 9950 0    118  ~ 0
Notes:
Text Notes 700  1100 0    118  ~ 0
CoreOne - xCORE200 Platform\nRevision 2.0\n
$Sheet
S 12400 3500 1300 950 
U 57CE263F
F0 "Clock-CS2200" 60
F1 "Clock-CS2200.sch" 60
F2 "CS2200_SDA" B L 12400 3600 60 
F3 "CS2200_SCL" B L 12400 3700 60 
F4 "REF_CLK1" I L 12400 3900 60 
F5 "AUX_CLK1" O L 12400 4000 60 
F6 "AUD_CLK1" O L 12400 4100 60 
$EndSheet
$Sheet
S 8750 1400 1600 1150
U 57CE4289
F0 "Eth-KSZ8081" 60
F1 "Eth-KSZ8081.sch" 60
F2 "ETH_TXD0" I L 8750 1500 60 
F3 "ETH_TXD1" I L 8750 1600 60 
F4 "ETH_TXD2" I L 8750 1700 60 
F5 "ETH_TXD3" I L 8750 1800 60 
F6 "ETH_TX_CTL" I L 8750 1900 60 
F7 "ETH_TX_CLK" I L 8750 2000 60 
F8 "ETH_MDC" B L 8750 2150 60 
F9 "ETH_MDIO" B L 8750 2250 60 
F10 "ETH_INT" O R 10350 2150 60 
F11 "ETH_RX_CLK" O R 10350 2000 60 
F12 "ETH_RX_DV" O R 10350 1900 60 
F13 "ETH_RXD0" O R 10350 1500 60 
F14 "ETH_RXD1" O R 10350 1600 60 
F15 "ETH_RXD2" O R 10350 1700 60 
F16 "ETH_RXD3" O R 10350 1800 60 
F17 "CLK125_OUT" O R 10350 2400 60 
F18 "ETH_RESET" I R 10350 2250 60 
$EndSheet
Text Label 1350 2400 0    60   ~ 0
I2S_LRCLK1
Text Label 1350 2500 0    60   ~ 0
I2S_BCLK1
Text Label 1350 2600 0    60   ~ 0
I2S_SDATA1
Text Label 1350 2900 0    60   ~ 0
I2S_LRCLK2
Text Label 1350 3000 0    60   ~ 0
I2S_BCLK2
Text Label 1350 3100 0    60   ~ 0
I2S_SDATA2
Text Label 5000 7900 2    60   ~ 0
I2S_LRCLK1
Text Label 5000 8000 2    60   ~ 0
I2S_BCLK1
Text Label 5000 8100 2    60   ~ 0
I2S_SDATA1
Text Label 5000 8500 2    60   ~ 0
I2S_LRCLK2
Text Label 5000 8600 2    60   ~ 0
I2S_BCLK2
Text Label 5000 8700 2    60   ~ 0
I2S_SDATA2
Text Label 5000 8200 2    60   ~ 0
I2S_D3
Text Label 5100 2500 2    60   ~ 0
ETH_RST
Text Label 5100 2600 2    60   ~ 0
ETH_INT
Text Label 5100 2750 2    60   ~ 0
ETH_TX_CLK
Text Label 5100 2850 2    60   ~ 0
ETH_TX_CTL
Text Label 5100 2950 2    60   ~ 0
ETH_TX0
Text Label 5100 3050 2    60   ~ 0
ETH_TX1
Text Label 5100 3150 2    60   ~ 0
ETH_TX2
Text Label 5100 3250 2    60   ~ 0
ETH_TX3
Text Label 5100 3400 2    60   ~ 0
ETH_RX_CLK
Text Label 5100 3500 2    60   ~ 0
ETH_RX_CTL
Text Label 5100 3600 2    60   ~ 0
ETH_RX0
Text Label 5100 3700 2    60   ~ 0
ETH_RX1
Text Label 5100 3800 2    60   ~ 0
ETH_RX2
Text Label 5100 3900 2    60   ~ 0
ETH_RX3
Text Label 5100 4050 2    60   ~ 0
ETH_MDIO
Text Label 5100 4150 2    60   ~ 0
ETH_MDC
Text Label 11000 2250 2    60   ~ 0
ETH_RST
Text Label 11000 2150 2    60   ~ 0
ETH_INT
Text Label 8100 2000 0    60   ~ 0
ETH_TX_CLK
Text Label 8100 1900 0    60   ~ 0
ETH_TX_CTL
Text Label 8100 1500 0    60   ~ 0
ETH_TX0
Text Label 8100 1600 0    60   ~ 0
ETH_TX1
Text Label 8100 1700 0    60   ~ 0
ETH_TX2
Text Label 8100 1800 0    60   ~ 0
ETH_TX3
Text Label 11000 2000 2    60   ~ 0
ETH_RX_CLK
Text Label 11000 1900 2    60   ~ 0
ETH_RX_CTL
Text Label 11000 1500 2    60   ~ 0
ETH_RX0
Text Label 11000 1600 2    60   ~ 0
ETH_RX1
Text Label 11000 1700 2    60   ~ 0
ETH_RX2
Text Label 11000 1800 2    60   ~ 0
ETH_RX3
Text Label 8100 2250 0    60   ~ 0
ETH_MDIO
Text Label 8100 2150 0    60   ~ 0
ETH_MDC
Text Notes 2000 1800 0    118  ~ 0
XMOS 200
Text Notes 8750 1250 0    118  ~ 0
Ethernet
Text Notes 2050 7500 0    118  ~ 0
Connectors
Text Notes 6800 3250 0    118  ~ 0
SPDIF
Text Label 5050 4500 2    60   ~ 0
USBD_N
Text Label 5050 4300 2    60   ~ 0
USB_VBUS
Text Label 5050 4400 2    60   ~ 0
USBD_P
Text Label 1450 9300 0    60   ~ 0
USBD_N
Text Label 1450 9200 0    60   ~ 0
USB_VBUS
Text Label 1450 9400 0    60   ~ 0
USBD_P
Text Label 1350 4450 0    60   ~ 0
XL_UP1
Text Label 1350 4650 0    60   ~ 0
XL_DN1
Text Label 1350 4550 0    60   ~ 0
XL_UP0
Text Label 1350 4750 0    60   ~ 0
XL_DN0
Text Label 1350 4900 0    60   ~ 0
TCK
Text Label 1350 5100 0    60   ~ 0
TDI
Text Label 1350 5000 0    60   ~ 0
TMS
Text Label 1350 5200 0    60   ~ 0
TDO
Text Label 5000 10050 2    60   ~ 0
XL_UP1
Text Label 5000 10250 2    60   ~ 0
XL_DN1
Text Label 5000 10150 2    60   ~ 0
XL_UP0
Text Label 5000 10350 2    60   ~ 0
XL_DN0
Text Label 5000 9600 2    60   ~ 0
TCK
Text Label 5000 9800 2    60   ~ 0
TDI
Text Label 5000 9700 2    60   ~ 0
TMS
Text Label 5000 9900 2    60   ~ 0
TDO
Text Label 5000 9450 2    60   ~ 0
XSYS_RST
Text Label 9050 3950 0    60   ~ 0
XMOS_RST
Text Label 800  5450 0    60   ~ 0
XMOS_RST
Text Label 1350 5600 0    60   ~ 0
I2C1_SCL
Text Label 1350 5700 0    60   ~ 0
I2C1_SDA
Text Label 5050 4950 2    60   ~ 0
SPI_CS1
Text Label 1450 7950 0    60   ~ 0
SPI_MISO
Text Label 1450 7750 0    60   ~ 0
SPI_SCLK
Text Label 1450 7850 0    60   ~ 0
SPI_MOSI
Text Label 1450 8150 0    60   ~ 0
SPI_CS2
Text Label 1450 8050 0    60   ~ 0
SPI_CS1
Text Label 1450 8650 0    60   ~ 0
I2C2_SCL
Text Label 1450 8550 0    60   ~ 0
I2C2_SDA
Text Label 5050 5200 2    60   ~ 0
AUD_MUTE
Text Label 12850 7350 0    60   ~ 0
AUD_MUTE
Text Label 15150 7850 2    60   ~ 0
SPI_MUTE
Text Label 15150 7350 2    60   ~ 0
I2C_MUTE
Text Label 1450 9000 0    60   ~ 0
I2C_MUTE
Text Label 1450 8300 0    60   ~ 0
SPI_MUTE
$Comp
L MyKiCadLibs-Lib:IC-LOGIC-BUF-NC7WZ16P6X U101
U 1 1 57E6D4D6
P 7050 6250
F 0 "U101" H 7200 5950 60  0000 C CNN
F 1 "NC7WZ16P6X" H 7400 5850 60  0000 C CNN
F 2 "MyKiCadLibs-Footprints:IC-SC70-6" H 7150 6250 60  0001 C CNN
F 3 "" H 7150 6250 60  0000 C CNN
	1    7050 6250
	1    0    0    -1  
$EndComp
$Comp
L MyKiCadLibs-Lib:IC-LOGIC-BUF-NC7WZ16P6X U101
U 2 1 57E6D4DC
P 7600 7850
F 0 "U101" H 7600 8150 60  0000 C CNN
F 1 "NC7WZ16P6X" H 7600 8050 60  0000 C CNN
F 2 "MyKiCadLibs-Footprints:IC-SC70-6" H 7700 7850 60  0001 C CNN
F 3 "" H 7700 7850 60  0000 C CNN
	2    7600 7850
	1    0    0    -1  
$EndComp
$Comp
L MyKiCadLibs-Lib:IC-LOGIC-BUF-NC7WZ16P6X U101
U 3 1 57E6D4E2
P 7600 7350
F 0 "U101" H 7600 7650 60  0000 C CNN
F 1 "NC7WZ16P6X" H 7600 7550 60  0000 C CNN
F 2 "MyKiCadLibs-Footprints:IC-SC70-6" H 7700 7350 60  0001 C CNN
F 3 "" H 7700 7350 60  0000 C CNN
	3    7600 7350
	1    0    0    -1  
$EndComp
Text Label 8950 7850 2    60   ~ 0
SPI_RST
Text Label 8950 7350 2    60   ~ 0
I2C_RST
$Comp
L MyKiCadLibs-Lib:C C101
U 1 1 57E6D4F6
P 7850 6300
F 0 "C101" H 7850 6400 40  0000 L CNN
F 1 "10u" H 7860 6215 40  0000 L CNN
F 2 "MyKiCadLibs-Footprints:SMD-0805" H 7888 6150 30  0001 C CNN
F 3 "" H 7850 6400 60  0000 C CNN
F 4 "10V" H 7915 6150 40  0000 C CNN "Voltage"
F 5 "X5R" H 7920 6075 40  0000 C CNN "Type"
F 6 "Ceramic capacitor" H 7850 6600 40  0001 L CNN "Description"
F 7 "20%" H 8250 6800 40  0001 C CNN "Tolerance"
F 8 "0805" H 7850 6300 60  0001 C CNN "Size"
	1    7850 6300
	1    0    0    -1  
$EndComp
$Comp
L MyKiCadLibs-Lib:C C102
U 1 1 57E6D501
P 8150 6300
F 0 "C102" H 8150 6400 40  0000 L CNN
F 1 "100n" H 8160 6215 40  0000 L CNN
F 2 "MyKiCadLibs-Footprints:SMD-0805" H 8188 6150 30  0001 C CNN
F 3 "" H 8150 6400 60  0000 C CNN
F 4 "50V" H 8215 6150 40  0000 C CNN "Voltage"
F 5 "X7R" H 8220 6075 40  0000 C CNN "Type"
F 6 "Ceramic capacitor" H 8150 6600 40  0001 L CNN "Description"
F 7 "10%" H 8550 6800 40  0001 C CNN "Tolerance"
F 8 "0805" H 8150 6300 60  0001 C CNN "Size"
	1    8150 6300
	1    0    0    -1  
$EndComp
$Comp
L power:+3V3 #PWR01
U 1 1 57E6D511
P 8150 5650
F 0 "#PWR01" H 8150 5500 50  0001 C CNN
F 1 "+3V3" H 8150 5790 50  0000 C CNN
F 2 "" H 8150 5650 50  0000 C CNN
F 3 "" H 8150 5650 50  0000 C CNN
	1    8150 5650
	1    0    0    -1  
$EndComp
$Comp
L power:GNDD #PWR02
U 1 1 57E6D517
P 8150 6850
F 0 "#PWR02" H 8150 6600 50  0001 C CNN
F 1 "GNDD" H 8150 6700 50  0000 C CNN
F 2 "" H 8150 6850 50  0000 C CNN
F 3 "" H 8150 6850 50  0000 C CNN
	1    8150 6850
	1    0    0    -1  
$EndComp
Text Label 9050 3800 0    60   ~ 0
GLB_RST
Text Label 6450 7350 0    60   ~ 0
GLB_RST
Text Label 1450 8900 0    60   ~ 0
I2C_RST
Text Label 1450 8400 0    60   ~ 0
SPI_RST
$Comp
L MyKiCadLibs-Lib:IC-LOGIC-BUF-NC7WZ16P6X U102
U 1 1 57E6CFAF
P 10100 6250
F 0 "U102" H 10250 5950 60  0000 C CNN
F 1 "NC7WZ16P6X" H 10450 5850 60  0000 C CNN
F 2 "MyKiCadLibs-Footprints:IC-SC70-6" H 10200 6250 60  0001 C CNN
F 3 "" H 10200 6250 60  0000 C CNN
	1    10100 6250
	1    0    0    -1  
$EndComp
$Comp
L MyKiCadLibs-Lib:IC-LOGIC-BUF-NC7WZ16P6X U102
U 2 1 57E6CFB5
P 10650 7850
F 0 "U102" H 10650 8150 60  0000 C CNN
F 1 "NC7WZ16P6X" H 10650 8050 60  0000 C CNN
F 2 "MyKiCadLibs-Footprints:IC-SC70-6" H 10750 7850 60  0001 C CNN
F 3 "" H 10750 7850 60  0000 C CNN
	2    10650 7850
	1    0    0    -1  
$EndComp
$Comp
L MyKiCadLibs-Lib:IC-LOGIC-BUF-NC7WZ16P6X U102
U 3 1 57E6CFBB
P 10650 7350
F 0 "U102" H 10650 7650 60  0000 C CNN
F 1 "NC7WZ16P6X" H 10650 7550 60  0000 C CNN
F 2 "MyKiCadLibs-Footprints:IC-SC70-6" H 10750 7350 60  0001 C CNN
F 3 "" H 10750 7350 60  0000 C CNN
	3    10650 7350
	1    0    0    -1  
$EndComp
$Comp
L MyKiCadLibs-Lib:C C103
U 1 1 57E6CFCE
P 10900 6300
F 0 "C103" H 10900 6400 40  0000 L CNN
F 1 "10u" H 10910 6215 40  0000 L CNN
F 2 "MyKiCadLibs-Footprints:SMD-0805" H 10938 6150 30  0001 C CNN
F 3 "" H 10900 6400 60  0000 C CNN
F 4 "10V" H 10965 6150 40  0000 C CNN "Voltage"
F 5 "X5R" H 10970 6075 40  0000 C CNN "Type"
F 6 "Ceramic capacitor" H 10900 6600 40  0001 L CNN "Description"
F 7 "20%" H 11300 6800 40  0001 C CNN "Tolerance"
F 8 "0805" H 10900 6300 60  0001 C CNN "Size"
	1    10900 6300
	1    0    0    -1  
$EndComp
$Comp
L MyKiCadLibs-Lib:C C104
U 1 1 57E6CFD9
P 11200 6300
F 0 "C104" H 11200 6400 40  0000 L CNN
F 1 "100n" H 11210 6215 40  0000 L CNN
F 2 "MyKiCadLibs-Footprints:SMD-0805" H 11238 6150 30  0001 C CNN
F 3 "" H 11200 6400 60  0000 C CNN
F 4 "50V" H 11265 6150 40  0000 C CNN "Voltage"
F 5 "X7R" H 11270 6075 40  0000 C CNN "Type"
F 6 "Ceramic capacitor" H 11200 6600 40  0001 L CNN "Description"
F 7 "10%" H 11600 6800 40  0001 C CNN "Tolerance"
F 8 "0805" H 11200 6300 60  0001 C CNN "Size"
	1    11200 6300
	1    0    0    -1  
$EndComp
$Comp
L power:+3V3 #PWR03
U 1 1 57E6CFE9
P 11200 5650
F 0 "#PWR03" H 11200 5500 50  0001 C CNN
F 1 "+3V3" H 11200 5790 50  0000 C CNN
F 2 "" H 11200 5650 50  0000 C CNN
F 3 "" H 11200 5650 50  0000 C CNN
	1    11200 5650
	1    0    0    -1  
$EndComp
$Comp
L power:GNDD #PWR04
U 1 1 57E6CFEF
P 11200 6850
F 0 "#PWR04" H 11200 6600 50  0001 C CNN
F 1 "GNDD" H 11200 6700 50  0000 C CNN
F 2 "" H 11200 6850 50  0000 C CNN
F 3 "" H 11200 6850 50  0000 C CNN
	1    11200 6850
	1    0    0    -1  
$EndComp
Text Label 9700 7350 0    60   ~ 0
AUD_CLK1
Text Label 12200 7350 2    60   ~ 0
AUD_MCLK1A
Text Label 12200 7850 2    60   ~ 0
AUD_MCLK1B
Text Label 11750 4100 0    60   ~ 0
AUD_CLK1
$Comp
L MyKiCadLibs-Lib:R R106
U 1 1 57E9F81A
P 11300 7850
F 0 "R106" V 11200 7850 40  0000 C CNN
F 1 "33" V 11307 7851 40  0000 C CNN
F 2 "MyKiCadLibs-Footprints:SMD-0805" V 11230 7850 30  0001 C CNN
F 3 "" V 11220 7850 30  0000 C CNN
F 4 "100mW" V 11400 7850 40  0001 C CNN "Power"
F 5 "Thick or thin film resistor" V 11545 7850 40  0001 C CNN "Description"
F 6 "0805" V 11475 7850 40  0001 C CNN "Size"
F 7 "1%" V 11625 7850 40  0001 C CNN "Tolerance"
	1    11300 7850
	0    1    -1   0   
$EndComp
$Comp
L MyKiCadLibs-Lib:R R103
U 1 1 57EA3758
P 11300 7350
F 0 "R103" V 11200 7350 40  0000 C CNN
F 1 "33" V 11307 7351 40  0000 C CNN
F 2 "MyKiCadLibs-Footprints:SMD-0805" V 11230 7350 30  0001 C CNN
F 3 "" V 11220 7350 30  0000 C CNN
F 4 "100mW" V 11400 7350 40  0001 C CNN "Power"
F 5 "Thick or thin film resistor" V 11545 7350 40  0001 C CNN "Description"
F 6 "0805" V 11475 7350 40  0001 C CNN "Size"
F 7 "1%" V 11625 7350 40  0001 C CNN "Tolerance"
	1    11300 7350
	0    1    -1   0   
$EndComp
Text Label 5000 8800 2    60   ~ 0
I2S_D4
Text Label 1350 2700 0    60   ~ 0
I2S_D3
Text Label 1350 3200 0    60   ~ 0
I2S_D4
Text Label 1350 3750 0    60   ~ 0
AUD_PLLSYNC
Text Label 1350 3950 0    60   ~ 0
SYS_CLK
Text Label 11750 3900 0    60   ~ 0
AUD_PLLSYNC
Text Label 11750 4000 0    60   ~ 0
SYS_CLK
Text Label 11750 3700 0    60   ~ 0
I2C1_SCL
Text Label 11750 3600 0    60   ~ 0
I2C1_SDA
$Comp
L MyKiCadLibs-Lib:R R101
U 1 1 57F1A982
P 1600 5300
F 0 "R101" V 1650 5550 40  0000 C CNN
F 1 "0" V 1607 5301 40  0000 C CNN
F 2 "MyKiCadLibs-Footprints:SMD-0805" V 1530 5300 30  0001 C CNN
F 3 "" V 1520 5300 30  0000 C CNN
F 4 "100mW" V 1700 5300 40  0001 C CNN "Power"
F 5 "Thick or thin film resistor" V 1845 5300 40  0001 C CNN "Description"
F 6 "0805" V 1775 5300 40  0001 C CNN "Size"
F 7 "1%" V 1925 5300 40  0001 C CNN "Tolerance"
	1    1600 5300
	0    1    -1   0   
$EndComp
Text Label 9050 4150 0    60   ~ 0
XSYS_RST
$Comp
L MyKiCadLibs-Lib:R R104
U 1 1 57F9886A
P 14450 7350
F 0 "R104" V 14350 7350 40  0000 C CNN
F 1 "33" V 14457 7351 40  0000 C CNN
F 2 "MyKiCadLibs-Footprints:SMD-0805" V 14380 7350 30  0001 C CNN
F 3 "" V 14370 7350 30  0000 C CNN
F 4 "100mW" V 14550 7350 40  0001 C CNN "Power"
F 5 "Thick or thin film resistor" V 14695 7350 40  0001 C CNN "Description"
F 6 "0805" V 14625 7350 40  0001 C CNN "Size"
F 7 "1%" V 14775 7350 40  0001 C CNN "Tolerance"
	1    14450 7350
	0    1    -1   0   
$EndComp
$Comp
L MyKiCadLibs-Lib:R R107
U 1 1 57F9C1F1
P 14450 7850
F 0 "R107" V 14350 7850 40  0000 C CNN
F 1 "33" V 14457 7851 40  0000 C CNN
F 2 "MyKiCadLibs-Footprints:SMD-0805" V 14380 7850 30  0001 C CNN
F 3 "" V 14370 7850 30  0000 C CNN
F 4 "100mW" V 14550 7850 40  0001 C CNN "Power"
F 5 "Thick or thin film resistor" V 14695 7850 40  0001 C CNN "Description"
F 6 "0805" V 14625 7850 40  0001 C CNN "Size"
F 7 "1%" V 14775 7850 40  0001 C CNN "Tolerance"
	1    14450 7850
	0    1    -1   0   
$EndComp
$Comp
L MyKiCadLibs-Lib:R R102
U 1 1 57F9EFB9
P 8250 7350
F 0 "R102" V 8150 7350 40  0000 C CNN
F 1 "33" V 8257 7351 40  0000 C CNN
F 2 "MyKiCadLibs-Footprints:SMD-0805" V 8180 7350 30  0001 C CNN
F 3 "" V 8170 7350 30  0000 C CNN
F 4 "100mW" V 8350 7350 40  0001 C CNN "Power"
F 5 "Thick or thin film resistor" V 8495 7350 40  0001 C CNN "Description"
F 6 "0805" V 8425 7350 40  0001 C CNN "Size"
F 7 "1%" V 8575 7350 40  0001 C CNN "Tolerance"
	1    8250 7350
	0    1    -1   0   
$EndComp
$Comp
L MyKiCadLibs-Lib:R R105
U 1 1 57F9F9E5
P 8250 7850
F 0 "R105" V 8150 7850 40  0000 C CNN
F 1 "33" V 8257 7851 40  0000 C CNN
F 2 "MyKiCadLibs-Footprints:SMD-0805" V 8180 7850 30  0001 C CNN
F 3 "" V 8170 7850 30  0000 C CNN
F 4 "100mW" V 8350 7850 40  0001 C CNN "Power"
F 5 "Thick or thin film resistor" V 8495 7850 40  0001 C CNN "Description"
F 6 "0805" V 8425 7850 40  0001 C CNN "Size"
F 7 "1%" V 8575 7850 40  0001 C CNN "Tolerance"
	1    8250 7850
	0    1    -1   0   
$EndComp
Text Label 1350 5950 0    60   ~ 0
I2C2_SCL
Text Label 1350 5850 0    60   ~ 0
I2C2_SDA
Text Label 1450 9850 0    60   ~ 0
AUX_DIGI0
Text Label 1450 9950 0    60   ~ 0
AUX_DIGI1
Text Label 1450 10050 0    60   ~ 0
AUX_DIGI2
Text Label 1450 10150 0    60   ~ 0
AUX_DIGI3
Text Label 1450 10250 0    60   ~ 0
AUX_DIGI4
Text Label 1450 10350 0    60   ~ 0
AUX_DIGI5
Text Label 1450 10450 0    60   ~ 0
AUX_DIGI6
Text Label 1450 10550 0    60   ~ 0
AUX_DIGI7
Text Label 1400 6200 0    60   ~ 0
AUX_DIGI0
Text Label 1400 6300 0    60   ~ 0
AUX_DIGI1
Text Label 1400 6400 0    60   ~ 0
AUX_DIGI2
Text Label 1400 6500 0    60   ~ 0
AUX_DIGI3
Text Label 5050 6200 2    60   ~ 0
AUX_DIGI4
Text Label 5050 6300 2    60   ~ 0
AUX_DIGI5
Text Label 5050 6400 2    60   ~ 0
AUX_DIGI6
Text Label 5050 6500 2    60   ~ 0
AUX_DIGI7
Text Notes 9350 3300 0    118  ~ 0
Reset control
Text Notes 12800 1250 0    118  ~ 0
Power supply
Text Notes 12000 3300 0    118  ~ 0
Clock generator
Text Notes 6600 5400 0    118  ~ 0
External reset buffer
Text Notes 9650 5400 0    118  ~ 0
Audio clock buffer
$Sheet
S 9650 3650 1100 700 
U 5968F234
F0 "Reset-NCP308" 60
F1 "Reset-NCP308.sch" 60
F2 "GLB_RESET" O L 9650 3800 60 
F3 "RST_IN" I L 9650 4150 60 
F4 "XMOS_RST" O L 9650 3950 60 
$EndSheet
Text Label 5000 7800 2    60   ~ 0
AUD_MCLK1A
Text Label 1350 3550 0    60   ~ 0
AUD_CLK1
Text Label 5050 5050 2    60   ~ 0
SPI_CS2
$Sheet
S 2000 1950 2450 4650
U 54BE4270
F0 "XMOS200" 50
F1 "XMOS200.sch" 50
F2 "SPI_MISO" I R 4450 4850 60 
F3 "SPI_SCLK" O R 4450 4650 60 
F4 "SPI_MOSI" O R 4450 4750 60 
F5 "TCK" I L 2000 4900 60 
F6 "TMS" I L 2000 5000 60 
F7 "TDI" I L 2000 5100 60 
F8 "TDO" O L 2000 5200 60 
F9 "~TRST~" I L 2000 5300 60 
F10 "~RST~" I L 2000 5450 60 
F11 "SYS_CLK" I L 2000 3950 60 
F12 "XL_UP1" O L 2000 4450 60 
F13 "XL_UP0" O L 2000 4550 60 
F14 "XL_DN1" O L 2000 4650 60 
F15 "XL_DN0" O L 2000 4750 60 
F16 "ETH_RX_CLK" I R 4450 3400 60 
F17 "ETH_TX_CLK" O R 4450 2750 60 
F18 "ETH_TX_CTL" O R 4450 2850 60 
F19 "ETH_RX_CTL" I R 4450 3500 60 
F20 "ETH_RX0" I R 4450 3600 60 
F21 "ETH_RX1" I R 4450 3700 60 
F22 "ETH_RX2" I R 4450 3800 60 
F23 "ETH_INT" I R 4450 2600 60 
F24 "ETH_TX0" O R 4450 2950 60 
F25 "ETH_TX1" O R 4450 3050 60 
F26 "ETH_TX2" O R 4450 3150 60 
F27 "ETH_TX3" O R 4450 3250 60 
F28 "ETH_RST" O R 4450 2500 60 
F29 "ETH_MDIO" B R 4450 4050 60 
F30 "ETH_MDC" B R 4450 4150 60 
F31 "USB_VBUS" I R 4450 4300 60 
F32 "SPDIF_RX" I L 2000 4300 60 
F33 "AUD_MCLKA" I L 2000 3550 60 
F34 "AUD_PLLSYNC" I L 2000 3750 60 
F35 "I2C1_SCL" B L 2000 5600 60 
F36 "I2C1_SDA" B L 2000 5700 60 
F37 "I2C2_SCL" B L 2000 5850 60 
F38 "I2C2_SDA" B L 2000 5950 60 
F39 "I2S_BCLK1" B L 2000 2500 60 
F40 "I2S_LRCLK1" B L 2000 2400 60 
F41 "I2S_DATA1" B L 2000 2600 60 
F42 "I2S_BCLK2" B L 2000 3000 60 
F43 "I2S_LRCLK2" B L 2000 2900 60 
F44 "I2S_DATA2" B L 2000 3100 60 
F45 "SPDIF_TX" O L 2000 4200 60 
F46 "ETH_RX3" I R 4450 3900 60 
F47 "AUD_MUTE" O R 4450 5200 60 
F48 "USBD_P" B R 4450 4400 60 
F49 "USBD_N" B R 4450 4500 60 
F50 "GPIOH" B R 4450 6500 60 
F51 "GPIOE" B R 4450 6200 60 
F52 "GPIOF" B R 4450 6300 60 
F53 "GPIOA" B L 2000 6200 60 
F54 "GPIOB" B L 2000 6300 60 
F55 "GPIOC" B L 2000 6400 60 
F56 "GPIOD" B L 2000 6500 60 
F57 "GPIOG" B R 4450 6400 60 
F58 "I2S_DATA3" B L 2000 2700 60 
F59 "I2S_DATA4" B L 2000 3200 60 
F60 "SPI_CS1" O R 4450 4950 60 
F61 "SPI_CS2" O R 4450 5050 60 
$EndSheet
$Comp
L MyKiCadLibs-Lib:IC-LOGIC-BUF-NC7WZ16P6X U103
U 1 1 59E78983
P 13250 6250
F 0 "U103" H 13400 5950 60  0000 C CNN
F 1 "NC7WZ16P6X" H 13600 5850 60  0000 C CNN
F 2 "MyKiCadLibs-Footprints:IC-SC70-6" H 13350 6250 60  0001 C CNN
F 3 "" H 13350 6250 60  0000 C CNN
	1    13250 6250
	1    0    0    -1  
$EndComp
$Comp
L MyKiCadLibs-Lib:IC-LOGIC-BUF-NC7WZ16P6X U103
U 2 1 59E78989
P 13800 7850
F 0 "U103" H 13800 8150 60  0000 C CNN
F 1 "NC7WZ16P6X" H 13800 8050 60  0000 C CNN
F 2 "MyKiCadLibs-Footprints:IC-SC70-6" H 13900 7850 60  0001 C CNN
F 3 "" H 13900 7850 60  0000 C CNN
	2    13800 7850
	1    0    0    -1  
$EndComp
$Comp
L MyKiCadLibs-Lib:IC-LOGIC-BUF-NC7WZ16P6X U103
U 3 1 59E7898F
P 13800 7350
F 0 "U103" H 13800 7650 60  0000 C CNN
F 1 "NC7WZ16P6X" H 13800 7550 60  0000 C CNN
F 2 "MyKiCadLibs-Footprints:IC-SC70-6" H 13900 7350 60  0001 C CNN
F 3 "" H 13900 7350 60  0000 C CNN
	3    13800 7350
	1    0    0    -1  
$EndComp
$Comp
L MyKiCadLibs-Lib:C C105
U 1 1 59E789A0
P 14050 6300
F 0 "C105" H 14050 6400 40  0000 L CNN
F 1 "10u" H 14060 6215 40  0000 L CNN
F 2 "MyKiCadLibs-Footprints:SMD-0805" H 14088 6150 30  0001 C CNN
F 3 "" H 14050 6400 60  0000 C CNN
F 4 "10V" H 14115 6150 40  0000 C CNN "Voltage"
F 5 "X5R" H 14120 6075 40  0000 C CNN "Type"
F 6 "Ceramic capacitor" H 14050 6600 40  0001 L CNN "Description"
F 7 "20%" H 14450 6800 40  0001 C CNN "Tolerance"
F 8 "0805" H 14050 6300 60  0001 C CNN "Size"
	1    14050 6300
	1    0    0    -1  
$EndComp
$Comp
L MyKiCadLibs-Lib:C C106
U 1 1 59E789AB
P 14350 6300
F 0 "C106" H 14350 6400 40  0000 L CNN
F 1 "100n" H 14360 6215 40  0000 L CNN
F 2 "MyKiCadLibs-Footprints:SMD-0805" H 14388 6150 30  0001 C CNN
F 3 "" H 14350 6400 60  0000 C CNN
F 4 "50V" H 14415 6150 40  0000 C CNN "Voltage"
F 5 "X7R" H 14420 6075 40  0000 C CNN "Type"
F 6 "Ceramic capacitor" H 14350 6600 40  0001 L CNN "Description"
F 7 "10%" H 14750 6800 40  0001 C CNN "Tolerance"
F 8 "0805" H 14350 6300 60  0001 C CNN "Size"
	1    14350 6300
	1    0    0    -1  
$EndComp
$Comp
L power:+3V3 #PWR05
U 1 1 59E789BB
P 14350 5650
F 0 "#PWR05" H 14350 5500 50  0001 C CNN
F 1 "+3V3" H 14350 5790 50  0000 C CNN
F 2 "" H 14350 5650 50  0000 C CNN
F 3 "" H 14350 5650 50  0000 C CNN
	1    14350 5650
	1    0    0    -1  
$EndComp
$Comp
L power:GNDD #PWR06
U 1 1 59E789C1
P 14350 6850
F 0 "#PWR06" H 14350 6600 50  0001 C CNN
F 1 "GNDD" H 14350 6700 50  0000 C CNN
F 2 "" H 14350 6850 50  0000 C CNN
F 3 "" H 14350 6850 50  0000 C CNN
	1    14350 6850
	1    0    0    -1  
$EndComp
Text Notes 12850 5400 0    118  ~ 0
External mute buffer
$Comp
L MyKiCadLibs-Lib:C C107
U 1 1 59E7AFAC
P 13450 8550
F 0 "C107" H 13450 8650 40  0000 L CNN
F 1 "10n" H 13460 8465 40  0000 L CNN
F 2 "MyKiCadLibs-Footprints:SMD-0805" H 13488 8400 30  0001 C CNN
F 3 "" H 13450 8650 60  0000 C CNN
F 4 "50V" H 13515 8400 40  0000 C CNN "Voltage"
F 5 "X7R" H 13520 8325 40  0000 C CNN "Type"
F 6 "Ceramic capacitor" H 13450 8850 40  0001 L CNN "Description"
F 7 "10%" H 13850 9050 40  0001 C CNN "Tolerance"
F 8 "0805" H 13450 8550 60  0001 C CNN "Size"
	1    13450 8550
	1    0    0    -1  
$EndComp
$Comp
L power:GNDD #PWR07
U 1 1 59E7BDC7
P 13450 8900
F 0 "#PWR07" H 13450 8650 50  0001 C CNN
F 1 "GNDD" H 13450 8750 50  0000 C CNN
F 2 "" H 13450 8900 50  0000 C CNN
F 3 "" H 13450 8900 50  0000 C CNN
	1    13450 8900
	1    0    0    -1  
$EndComp
Wire Wire Line
	6200 4250 6800 4250
Wire Wire Line
	6800 3750 6200 3750
Wire Wire Line
	2000 4200 1350 4200
Wire Wire Line
	1350 4300 2000 4300
Wire Wire Line
	5050 4850 4450 4850
Wire Wire Line
	4450 4650 5050 4650
Wire Wire Line
	5050 4750 4450 4750
Wire Wire Line
	1350 2400 2000 2400
Wire Wire Line
	2000 2500 1350 2500
Wire Wire Line
	1350 2600 2000 2600
Wire Wire Line
	1350 2900 2000 2900
Wire Wire Line
	2000 3000 1350 3000
Wire Wire Line
	1350 3100 2000 3100
Wire Wire Line
	5000 7900 4350 7900
Wire Wire Line
	4350 8000 5000 8000
Wire Wire Line
	5000 8100 4350 8100
Wire Wire Line
	5000 8500 4350 8500
Wire Wire Line
	4350 8600 5000 8600
Wire Wire Line
	5000 8700 4350 8700
Wire Wire Line
	1350 3550 2000 3550
Wire Wire Line
	4450 2500 5100 2500
Wire Wire Line
	5100 2600 4450 2600
Wire Wire Line
	4450 2750 5100 2750
Wire Wire Line
	5100 2850 4450 2850
Wire Wire Line
	4450 2950 5100 2950
Wire Wire Line
	5100 3050 4450 3050
Wire Wire Line
	4450 3150 5100 3150
Wire Wire Line
	5100 3250 4450 3250
Wire Wire Line
	4450 3400 5100 3400
Wire Wire Line
	5100 3500 4450 3500
Wire Wire Line
	4450 3600 5100 3600
Wire Wire Line
	5100 3700 4450 3700
Wire Wire Line
	4450 3800 5100 3800
Wire Wire Line
	5100 3900 4450 3900
Wire Wire Line
	4450 4050 5100 4050
Wire Wire Line
	5100 4150 4450 4150
Wire Wire Line
	10350 2250 11000 2250
Wire Wire Line
	11000 2150 10350 2150
Wire Wire Line
	8750 2000 8100 2000
Wire Wire Line
	8100 1900 8750 1900
Wire Wire Line
	8750 1500 8100 1500
Wire Wire Line
	8100 1600 8750 1600
Wire Wire Line
	8750 1700 8100 1700
Wire Wire Line
	8100 1800 8750 1800
Wire Wire Line
	10350 2000 11000 2000
Wire Wire Line
	11000 1900 10350 1900
Wire Wire Line
	10350 1500 11000 1500
Wire Wire Line
	11000 1600 10350 1600
Wire Wire Line
	10350 1700 11000 1700
Wire Wire Line
	11000 1800 10350 1800
Wire Wire Line
	8750 2250 8100 2250
Wire Wire Line
	8100 2150 8750 2150
Wire Wire Line
	5050 4500 4450 4500
Wire Wire Line
	4450 4300 5050 4300
Wire Wire Line
	5050 4400 4450 4400
Wire Wire Line
	1450 9300 2050 9300
Wire Wire Line
	2050 9200 1450 9200
Wire Wire Line
	1450 9400 2050 9400
Wire Wire Line
	1350 4450 2000 4450
Wire Wire Line
	1350 4650 2000 4650
Wire Wire Line
	1350 4550 2000 4550
Wire Wire Line
	1350 4750 2000 4750
Wire Wire Line
	1350 4900 2000 4900
Wire Wire Line
	1350 5100 2000 5100
Wire Wire Line
	1350 5000 2000 5000
Wire Wire Line
	1350 5200 2000 5200
Wire Wire Line
	1850 5300 2000 5300
Wire Wire Line
	5000 10050 4350 10050
Wire Wire Line
	5000 10250 4350 10250
Wire Wire Line
	5000 10150 4350 10150
Wire Wire Line
	5000 10350 4350 10350
Wire Wire Line
	5000 9600 4350 9600
Wire Wire Line
	5000 9800 4350 9800
Wire Wire Line
	5000 9700 4350 9700
Wire Wire Line
	5000 9900 4350 9900
Wire Wire Line
	5000 9450 4350 9450
Wire Wire Line
	9050 3950 9650 3950
Wire Wire Line
	800  5450 1300 5450
Wire Wire Line
	1350 5600 2000 5600
Wire Wire Line
	1350 5700 2000 5700
Wire Wire Line
	5050 4950 4450 4950
Wire Wire Line
	1450 7950 2050 7950
Wire Wire Line
	2050 7750 1450 7750
Wire Wire Line
	1450 7850 2050 7850
Wire Wire Line
	1450 8150 2050 8150
Wire Wire Line
	1450 8050 2050 8050
Wire Wire Line
	1450 8650 2050 8650
Wire Wire Line
	1450 8550 2050 8550
Wire Wire Line
	5050 5200 4450 5200
Wire Wire Line
	14700 7850 15150 7850
Wire Wire Line
	14700 7350 15150 7350
Wire Wire Line
	1450 8300 2050 8300
Wire Wire Line
	1450 9000 2050 9000
Wire Wire Line
	6450 7350 6900 7350
Wire Wire Line
	7350 7850 6900 7850
Wire Wire Line
	6900 7850 6900 7350
Connection ~ 6900 7350
Wire Wire Line
	8500 7350 8950 7350
Wire Wire Line
	8500 7850 8950 7850
Wire Wire Line
	8150 6500 8150 6800
Wire Wire Line
	8150 5650 8150 5700
Wire Wire Line
	7850 6800 7850 6500
Wire Wire Line
	7850 5700 7850 6100
Wire Wire Line
	7050 6800 7850 6800
Wire Wire Line
	7050 6800 7050 6700
Connection ~ 7850 6800
Wire Wire Line
	7050 5700 7850 5700
Wire Wire Line
	7050 5700 7050 5800
Connection ~ 7850 5700
Connection ~ 8150 6800
Connection ~ 8150 5700
Wire Wire Line
	9050 3800 9650 3800
Wire Wire Line
	2050 8400 1450 8400
Wire Wire Line
	1450 8900 2050 8900
Wire Wire Line
	9700 7350 10300 7350
Wire Wire Line
	10400 7850 10300 7850
Wire Wire Line
	10300 7850 10300 7350
Connection ~ 10300 7350
Wire Wire Line
	11550 7350 12200 7350
Wire Wire Line
	11550 7850 12200 7850
Wire Wire Line
	11200 6500 11200 6800
Wire Wire Line
	11200 5650 11200 5700
Wire Wire Line
	10900 6800 10900 6500
Wire Wire Line
	10900 5700 10900 6100
Wire Wire Line
	10100 6800 10900 6800
Wire Wire Line
	10100 6800 10100 6700
Connection ~ 10900 6800
Wire Wire Line
	10100 5700 10900 5700
Wire Wire Line
	10100 5700 10100 5800
Connection ~ 10900 5700
Connection ~ 11200 6800
Connection ~ 11200 5700
Wire Wire Line
	12400 4100 11750 4100
Wire Wire Line
	11050 7850 10950 7850
Wire Wire Line
	11050 7350 10950 7350
Wire Wire Line
	5000 8800 4350 8800
Wire Wire Line
	2000 3750 1350 3750
Wire Wire Line
	2000 3950 1350 3950
Wire Wire Line
	12400 3900 11750 3900
Wire Wire Line
	12400 4000 11750 4000
Wire Wire Line
	11750 3700 12400 3700
Wire Wire Line
	11750 3600 12400 3600
Wire Wire Line
	1350 5300 1300 5300
Wire Wire Line
	1300 5300 1300 5450
Connection ~ 1300 5450
Wire Wire Line
	9050 4150 9650 4150
Wire Wire Line
	8000 7350 7900 7350
Wire Wire Line
	7900 7850 8000 7850
Wire Wire Line
	1350 5950 2000 5950
Wire Wire Line
	1350 5850 2000 5850
Wire Wire Line
	1450 10550 2050 10550
Wire Wire Line
	1450 10450 2050 10450
Wire Wire Line
	2050 10350 1450 10350
Wire Wire Line
	1450 10250 2050 10250
Wire Wire Line
	2050 10150 1450 10150
Wire Wire Line
	1450 10050 2050 10050
Wire Wire Line
	2050 9950 1450 9950
Wire Wire Line
	1450 9850 2050 9850
Wire Wire Line
	2000 6500 1400 6500
Wire Wire Line
	1400 6400 2000 6400
Wire Wire Line
	2000 6300 1400 6300
Wire Wire Line
	1400 6200 2000 6200
Wire Wire Line
	5050 6500 4450 6500
Wire Wire Line
	5050 6400 4450 6400
Wire Wire Line
	4450 6300 5050 6300
Wire Wire Line
	5050 6200 4450 6200
Wire Wire Line
	1350 2700 2000 2700
Wire Wire Line
	2000 3200 1350 3200
Wire Wire Line
	5000 8200 4350 8200
Wire Wire Line
	5000 8400 4350 8400
Wire Wire Line
	5000 7800 4350 7800
Wire Wire Line
	5050 5050 4450 5050
Wire Wire Line
	12850 7350 13450 7350
Wire Wire Line
	13550 7850 13450 7850
Wire Wire Line
	13450 7350 13450 7850
Connection ~ 13450 7350
Wire Wire Line
	14350 6500 14350 6800
Wire Wire Line
	14350 5650 14350 5700
Wire Wire Line
	14050 6800 14050 6500
Wire Wire Line
	14050 5700 14050 6100
Wire Wire Line
	13250 6800 14050 6800
Wire Wire Line
	13250 6800 13250 6700
Connection ~ 14050 6800
Wire Wire Line
	13250 5700 14050 5700
Wire Wire Line
	13250 5700 13250 5800
Connection ~ 14050 5700
Connection ~ 14350 6800
Connection ~ 14350 5700
Wire Wire Line
	14200 7350 14100 7350
Wire Wire Line
	14200 7850 14100 7850
Connection ~ 13450 7850
Wire Wire Line
	13450 8900 13450 8750
$Comp
L MyKiCadLibs-Lib:PIN TP101
U 1 1 59E8D2D8
P 13750 8150
F 0 "TP101" H 14125 8150 40  0000 C CNN
F 1 "PIN" H 14250 8150 40  0001 C CNN
F 2 "MyKiCadLibs-Footprints:TP-2mm" H 14090 8040 60  0001 C CNN
F 3 "" H 14090 8040 60  0000 C CNN
	1    13750 8150
	1    0    0    -1  
$EndComp
Wire Wire Line
	13750 8150 13450 8150
Connection ~ 13450 8150
Text Label 5000 8400 2    60   ~ 0
AUD_MCLK1B
Wire Wire Line
	6900 7350 7350 7350
Wire Wire Line
	7850 6800 8150 6800
Wire Wire Line
	7850 5700 8150 5700
Wire Wire Line
	8150 6800 8150 6850
Wire Wire Line
	8150 5700 8150 6100
Wire Wire Line
	10300 7350 10400 7350
Wire Wire Line
	10900 6800 11200 6800
Wire Wire Line
	10900 5700 11200 5700
Wire Wire Line
	11200 6800 11200 6850
Wire Wire Line
	11200 5700 11200 6100
Wire Wire Line
	1300 5450 2000 5450
Wire Wire Line
	13450 7350 13550 7350
Wire Wire Line
	14050 6800 14350 6800
Wire Wire Line
	14050 5700 14350 5700
Wire Wire Line
	14350 6800 14350 6850
Wire Wire Line
	14350 5700 14350 6100
Wire Wire Line
	13450 7850 13450 8150
Wire Wire Line
	13450 8150 13450 8350
$EndSCHEMATC
