M48
;Layer_Color=9474304
;FILE_FORMAT=4:3
METRIC
;TYPE=PLATED
T1F00S00C0.200
T2F00S00C0.250
T3F00S00C0.300
T4F00S00C0.800
T5F00S00C0.900
T6F00S00C0.950
T7F00S00C1.000
T9F00S00C1.100
T10F00S00C1.300
T11F00S00C1.400
T12F00S00C1.500
T13F00S00C1.600
T14F00S00C1.700
T15F00S00C2.300
T16F00S00C2.650
T17F00S00C3.200
%
T01
X0161100Y0076900
Y0078100
X0158600Y0078600
X0157500
X0156400
Y0077500
Y0076400
X0157500
Y0077500
X0158600
Y0076400
T02
X0129000Y0076000
Y0077500
X0130500
X0132000
Y0076000
X0130500
Y0079000
X0129000
X0132000
T03
X0023500Y0036000
X0022600Y0037600
X0022050Y0039050
X0026200Y0039500
X0027500Y0037100
X0030500Y0038000
Y0038900
X0031000Y0036000
X0070100Y0036300
X0069600Y0038500
X0073500
X0075500Y0037000
X0083000Y0037500
Y0038500
Y0039500
X0084000Y0038500
X0082000
X0088000
X0089000
Y0039500
Y0037500
X0090000Y0038500
X0089900Y0036300
X0093600
X0092000Y0039100
X0096800Y0038500
X0097900
X0099000
X0106200
X0118100Y0035800
X0091700Y0030600
X0087500Y0030500
X0085500Y0028700
X0082900Y0030500
X0086600Y0034500
X0120000Y0033500
Y0038000
X0122000Y0037300
X0126000Y0035000
X0130000Y0033500
X0131500Y0033100
X0132500
X0133500
X0134500
X0135500
X0136500Y0033000
X0137500
X0141500
X0143500Y0038500
Y0039500
X0144500
X0145500
X0149000
X0150000
X0151000
X0152000
Y0038500
X0155050Y0036450
X0155000Y0031500
X0148000Y0031500
X0123500Y0031000
X0159000Y0031500
X0158950Y0036450
X0160000Y0046500
Y0047500
Y0048500
Y0049500
X0160500Y0051500
Y0052500
Y0053500
X0164500Y0049000
X0169000Y0055500
X0163400Y0060800
X0167500Y0065000
X0169000Y0068300
X0162500Y0068900
X0160000Y0067500
X0160250Y0072750
X0161700Y0072700
X0162700Y0072800
X0160400Y0074900
X0163700Y0076700
Y0079100
X0180500Y0064400
X0156000Y0071000
X0154800Y0070600
X0153400Y0069000
X0152500Y0068800
X0148500Y0069000
X0149000Y0070500
X0147500Y0071000
Y0072500
X0148000Y0074000
X0150600Y0073600
X0154600Y0074800
X0153800Y0076300
X0156100Y0072700
X0157600Y0073600
X0141600Y0074200
X0136900Y0074500
Y0072900
Y0071600
X0138200Y0070600
X0137500Y0066500
X0136500
X0135500
X0135500Y0064000
X0136500
X0137500
X0138500
X0139500
X0140500
X0142200Y0066700
X0138800Y0059900
X0137200Y0057100
X0137200Y0055300
X0134500Y0055800
X0133700
X0131700
X0130700
X0129600Y0055700
X0128400Y0057300
X0125500Y0058200
X0123800Y0058000
X0125300Y0056200
X0121800Y0055500
X0120000Y0057400
X0119200Y0052000
X0123300Y0051100
X0125000Y0050800
X0127500Y0052400
X0128000Y0053300
X0130800Y0050200
X0131000Y0046500
X0130000
X0129000
X0128000
X0127000
X0126500Y0045000
Y0040000
X0131400Y0043300
X0132500
X0134500
X0134000Y0046500
X0133000
X0132000
X0135000
X0136000
X0137700Y0043800
X0137900Y0042400
X0143500Y0040500
X0152000
X0155000
X0156000
X0155500Y0042500
X0158500
X0152550Y0043175
X0152525Y0045350
X0151100Y0045275
X0150375
X0149425Y0043500
X0154000Y0046500
Y0047500
Y0048500
Y0049500
X0153000Y0052000
Y0053000
Y0054000
Y0055000
Y0056000
Y0057000
X0152000
X0151000
X0150000
X0149000
X0148000
X0147000
X0146000
X0145000
X0144000
X0143000
Y0056000
Y0055000
Y0054000
Y0053000
Y0052000
X0144000
X0145000
X0146000
X0147000
X0148000
X0149000
X0150000
X0151000
X0152000
X0140000Y0048000
X0134800Y0059400
X0130400Y0059200
X0130700Y0066600
X0131700
Y0067600
X0129700Y0066600
X0130700Y0071100
X0133100
X0134000Y0072500
X0132000
X0129500
X0127500Y0071100
X0125100Y0071100
X0124200Y0073500
X0124100Y0077300
X0125500Y0076100
Y0079300
X0122500Y0069500
Y0066800
X0123600Y0066200
X0124300Y0065500
X0125000Y0064800
X0125800Y0064100
X0121300Y0064900
X0120000Y0068000
X0134500Y0064000
X0136800Y0076900
X0117600Y0077300
X0110500Y0077000
Y0076000
Y0075000
Y0074000
X0112700Y0073000
X0114100Y0072100
X0115000Y0067800
X0116100
X0112000Y0068700
X0111000Y0069500
X0109500Y0068800
X0105500
X0105000Y0069500
Y0070500
X0106000Y0071750
X0103900Y0073000
X0103000
X0102000
X0101000
X0102700Y0074600
X0107700Y0077600
X0103400Y0065400
X0102200Y0061900
X0100100
X0098200Y0062500
Y0061200
X0096900Y0067400
X0096000Y0070300
X0091100Y0074500
X0087000Y0073000
Y0071800
X0087400Y0069300
X0084700Y0068600
X0082400
X0082175Y0065725
X0081000Y0065700
X0079400Y0064050
X0079900Y0061800
X0086800Y0063100
X0086200Y0064800
X0087500Y0055000
X0088500
X0089500
X0090500
X0091500
X0092500
X0093500
X0094500
X0095500
Y0052000
X0094500
X0093500
X0092500
X0091500
X0090500
X0089500
X0088500
X0087500
Y0053000
Y0054000
X0086800Y0049400
X0083600
X0082000Y0052000
Y0053000
Y0054000
Y0055000
X0079850Y0046450
X0080400Y0041400
X0088700Y0041500
X0092000Y0041800
X0094300
X0094100Y0045000
X0092600
X0091000
Y0048500
X0092500
X0094000
X0095500
X0101800Y0048900
X0101200Y0050100
X0100600Y0051900
X0101300Y0054800
X0103800Y0057600
X0105100Y0058500
X0106800Y0059500
X0107600
X0108700Y0058500
X0109500Y0057600
X0112800Y0058000
X0115000
X0117100
X0115000Y0055500
X0113300Y0055200
X0111200Y0053500
X0109800Y0052300
X0108450Y0051300
X0108400Y0053500
X0105200Y0051500
X0102100Y0045900
X0102900Y0041600
X0110400Y0040000
X0116200Y0041600
X0112600Y0045600
X0116000Y0051100
X0114200Y0062300
X0118500Y0062000
X0109000Y0062300
Y0061500
X0081200Y0072400
X0081600Y0074400
X0077700
X0076000Y0074500
X0073200Y0073100
X0068200Y0071000
X0064800Y0077500
X0056900
X0053500Y0071000
X0056200Y0067800
X0059900Y0068700
Y0063700
X0058750Y0061850
Y0060850
Y0058350
X0058400Y0057100
X0055400Y0057400
X0054000Y0057500
X0053250Y0058350
X0053600Y0059200
Y0060100
X0053250Y0060850
X0055200Y0060900
X0055450Y0059350
X0049900Y0058700
X0050000Y0060500
X0049500Y0061800
Y0062700
X0051000Y0063500
X0044900
Y0064400
X0043900Y0061000
X0042800
X0042000Y0060636
X0041500Y0059500
X0040000
Y0051500
X0045500Y0053500
X0046500
X0049500Y0054700
X0049525Y0055525
X0051000Y0053000
X0053500
X0054500
X0055500
X0056600
X0057700Y0053400
X0062500Y0054000
Y0055525
X0063000Y0056500
X0061800Y0058600
Y0060900
X0065000Y0062300
X0072500Y0060600
X0072800Y0057700
X0079200Y0071500
X0045500Y0071000
Y0070000
X0043700Y0069500
X0042800Y0070500
X0039850Y0078950
X0044500Y0048500
X0043000Y0046900
Y0046000
X0050500Y0046500
X0057800Y0043900
X0038500Y0043500
Y0049500
X0039000Y0052500
X0038000Y0055500
X0039000Y0059500
X0038500Y0061500
Y0067500
X0038000Y0074500
X0030500Y0074000
Y0075000
X0030700Y0072000
X0032000Y0071500
X0030500Y0069000
Y0068000
X0030800Y0066000
X0032000Y0065500
X0030500Y0063000
Y0062000
X0031000Y0060000
X0032000Y0059500
X0030500Y0057000
Y0056000
X0030700Y0054000
X0032000Y0053500
X0030500Y0051000
Y0050000
X0030700Y0048000
X0032000Y0047500
X0030400Y0045000
Y0044000
X0030500Y0042000
X0031500Y0041500
X0027600Y0043300
X0026200Y0045500
X0022050Y0045050
X0022800Y0043000
X0023500Y0042000
Y0048000
X0022025Y0050175
X0022150Y0051050
X0023500Y0054000
X0021725Y0056175
X0022050Y0057050
X0023500Y0060000
X0022000Y0062175
X0021950Y0063050
X0023500Y0066000
X0022275Y0068175
X0022050Y0069050
X0023500Y0072000
X0023100Y0073700
X0022150Y0075050
X0023500Y0078000
X0026200Y0075500
X0027600Y0073100
X0026200Y0069500
X0027600Y0067200
X0026200Y0063500
X0027600Y0061100
X0026100Y0057500
X0027500Y0055300
X0026200Y0051500
X0027600Y0049200
Y0079100
X0030900Y0078000
X0032500Y0077500
X0030500Y0080000
Y0081000
X0031500Y0083500
X0029550Y0083650
X0026200Y0081500
X0022050Y0081050
X0022072Y0080175
X0022200Y0089100
X0022000Y0096000
Y0098000
Y0102000
X0022200Y0107200
X0022100Y0109500
X0022000Y0113500
Y0117500
X0014300Y0108900
X0014200Y0106900
X0014100Y0089000
X0035800Y0086300
X0039200Y0082500
X0038000Y0079500
X0035200Y0094600
X0039100Y0104500
X0037200Y0109100
X0045000
X0045500Y0104250
X0048300Y0104100
X0048500Y0105300
X0049500Y0107700
X0050500
X0051500
X0053100Y0107400
X0052700Y0106500
X0051600Y0104500
X0051250Y0102350
X0053750Y0103750
X0057600Y0104200
X0058300Y0106200
X0058000Y0109200
X0055200Y0109000
X0054900Y0111000
X0054100Y0111600
X0053200Y0111550
X0052300Y0110800
X0051300Y0111600
X0048900Y0118900
X0044500Y0117300
X0043500Y0102900
X0050700Y0096000
X0060000Y0095200
X0059700Y0101100
X0058300
X0063200Y0103900
X0062500Y0105500
X0062000Y0107000
X0061900Y0108500
X0061000Y0111000
Y0112000
Y0113000
X0062000Y0113700
X0064550Y0118650
X0071600Y0115300
X0077300Y0110600
X0066900Y0096300
X0068000Y0085600
X0069000Y0084300
X0073300Y0088400
X0077000Y0080000
X0063200Y0080800
X0058000Y0080300
X0058924Y0085000
X0058876Y0086200
X0054350Y0084350
Y0088450
X0052000Y0082000
X0047500Y0086400
X0082500Y0094500
Y0098300
Y0099500
Y0103300
Y0104500
Y0108300
Y0109500
Y0113300
Y0117100
X0081350Y0118700
X0086500Y0109000
Y0104000
Y0099000
Y0094000
X0091500
X0094000Y0092000
X0096500Y0094000
Y0099000
X0091500
Y0104000
Y0109000
X0096500
Y0104000
X0101500
X0105900Y0104300
X0107950Y0103650
X0109400Y0103000
X0113500Y0102300
X0114500Y0102000
X0115500
X0117700Y0102200
X0118400Y0101100
X0116800Y0098000
X0115700
X0113500Y0098000
X0113500Y0094500
X0112500Y0089700
X0110800
X0108950Y0092850
X0106900Y0091900
X0101500Y0094000
Y0099000
X0106800Y0099500
X0106000Y0107200
Y0108400
X0101500Y0109000
X0104000Y0114800
X0101200Y0117900
X0113000Y0109300
X0113200Y0107000
X0112400Y0106000
X0115200Y0105500
X0115900Y0089400
X0118000Y0089000
X0117600Y0085000
X0115500
Y0086000
Y0087000
Y0084000
X0112500Y0084300
X0111600Y0085000
X0112300Y0081900
X0113100Y0079400
X0115000Y0079500
X0116100Y0080600
X0118100Y0079900
X0108700Y0080400
Y0081900
Y0083400
X0097000Y0085000
X0096200Y0084300
X0092000Y0080100
X0084500Y0080000
X0090000Y0087200
X0121500Y0088600
X0123500Y0088500
X0127300Y0088800
Y0089800
Y0090800
Y0091800
Y0092800
Y0094000
X0124900Y0093900
X0124000Y0094400
X0121300Y0093100
X0119600Y0094500
X0122200Y0098000
X0122500Y0101100
X0124450Y0101150
X0123600Y0103000
X0120000Y0104900
X0127200Y0099200
X0128280
X0134100Y0102500
X0130900Y0114500
X0128200Y0113100
X0127000Y0115300
X0125150Y0117950
X0122500Y0116600
X0139600Y0115000
X0158500Y0113600
X0154700Y0108500
X0150800Y0102100
X0152700Y0087900
X0151300Y0086400
X0147500Y0089000
X0141000Y0089500
X0140000
X0139000
X0138000
X0142100Y0093100
X0142800Y0093800
X0141500Y0083000
X0144800Y0081600
X0147400Y0081200
X0156775Y0081167
X0157000Y0084000
X0155000Y0083500
X0157500Y0087300
X0158200Y0091000
X0136900Y0082900
Y0080500
X0134000Y0082500
X0131500
X0129000
X0130300Y0083900
X0132700
X0127500
X0126000Y0082000
X0124100Y0082500
Y0080500
X0122100Y0085500
X0131000Y0087400
X0158900Y0088500
X0161300Y0091500
Y0083200
X0160500Y0081300
X0166500Y0086700
X0167700Y0088400
X0167300Y0095900
X0166000Y0103900
X0168500Y0106400
X0174100Y0107700
X0173500Y0111400
X0168100Y0117100
X0160300Y0114900
X0159550Y0107050
X0176300Y0102500
X0183100Y0090800
X0161900Y0126200
X0108950Y0123550
X0100700Y0123000
X0098600Y0120800
X0097000Y0124000
X0089600Y0123200
X0079900Y0124000
X0082000Y0119900
X0076600Y0120600
X0075100Y0119900
X0066600Y0119500
X0065000Y0121500
X0061300Y0120600
X0058600Y0119800
X0051000Y0131500
X0048500Y0129500
X0047000
Y0128000
X0041500
X0040000
Y0129500
X0041500
Y0134000
X0045400Y0133800
X0039700Y0122200
X0035500Y0129500
X0031400Y0132700
X0022000Y0126000
Y0120000
X0014300Y0127100
T04
X0098000Y0080000
X0100000
X0102000
X0075040Y0126000
X0072500
X0069960
X0060040
X0057500
X0054960
T05
X0166356Y0071404
Y0073436
Y0075468
X0168896Y0076484
Y0078516
Y0074452
Y0072420
Y0080548
Y0082580
X0166356Y0083596
Y0081564
Y0079532
T06
X0099000Y0036200
X0101500
X0103500
X0106000
T07
X0035000Y0032500
X0038500
X0045000
X0048500
X0067420Y0030930
X0069960
X0072500
X0075040
X0077580
X0076310Y0033470
X0073770
X0071230
X0068690
X0136000Y0030000
X0139500
X0176000Y0054000
X0179500
X0152000Y0060500
X0148500
X0121000Y0050000
Y0046500
X0119200Y0070800
X0089730Y0069410
Y0066870
Y0064330
Y0061790
X0075040Y0062690
X0072500
X0069960
Y0065230
X0072500
Y0067770
X0075040
Y0070310
X0072500
X0069960
Y0067770
X0075040Y0065230
X0074000Y0094000
X0071000
X0069960Y0099690
X0072500
X0075040
X0075040Y0102230
X0072500Y0102230
X0069960
Y0104770
X0072500
X0075040
Y0107310
X0072500
X0069960
X0063060Y0088460
X0060520
X0106240Y0094810
X0108780
Y0113860
X0111320
X0136720Y0108780
X0139260
X0140530Y0096080
X0137990
X0135450
X0132910
X0180230Y0100070
X0182770
Y0102610
X0180230
Y0105150
X0182770
Y0107690
X0180230
Y0110230
X0182770
Y0112770
X0180230
Y0115310
X0182770
Y0117850
X0180230
Y0120390
X0182770
Y0122930
X0180230
X0093540Y0120210
X0091000
T09
X0012000Y0044500
X0017000
Y0047000
Y0052000
Y0054500
X0019500Y0055750
X0012000Y0054500
Y0069500
X0017000
Y0072000
Y0077000
X0019500Y0068250
Y0043250
Y0080750
X0017000Y0079500
X0012000
X0012000Y0093000
X0017000
Y0095500
Y0100500
Y0103000
X0019500Y0104250
X0019500Y0111750
X0017000Y0113000
Y0115500
X0012000Y0113000
X0012000Y0103000
X0019500Y0091750
X0054960Y0128630
X0060040
X0069960
X0075040
X0019500Y0124250
X0017000Y0123000
Y0120500
X0012000Y0123000
T10
X0179310Y0069982
X0181850
X0184390
Y0085018
X0181850
T11
X0120000Y0125000
X0122500Y0122500
X0127500Y0125000
X0135000
X0132500Y0122500
X0140500Y0125000
X0143000Y0122500
X0148000Y0125000
X0155500
X0153000Y0122500
Y0135000
X0150500
X0145500
X0143000
X0132500
X0130000
X0125000
X0122500
T12
X0095900Y0080000
X0104100
T13
X0175500Y0068712
Y0086288
T14
X0086500Y0129000
X0103500
T15
X0095900Y0033500
X0109100
T16
X0081500Y0129000
X0086500Y0133500
X0091500Y0129000
X0098500
X0103500Y0133500
X0108500Y0129000
T17
X0011500Y0031500
X0183500
X0068000Y0080000
X0145000Y0099000
X0183500Y0133500
X0011500
M30
